<?xml version="1.0" encoding="UTF-8"?>
<svg id="svg4" class="svg-inline--fa fa-rss-square fa-w-14" width="24" height="24" aria-hidden="true" data-icon="rss-square" data-prefix="fas" focusable="false" role="img" version="1.1" viewBox="0 0 24 24" xmlns="http://www.w3.org/2000/svg" xmlns:cc="http://creativecommons.org/ns#" xmlns:dc="http://purl.org/dc/elements/1.1/" xmlns:rdf="http://www.w3.org/1999/02/22-rdf-syntax-ns#">
 <metadata id="metadata10">
  <rdf:RDF>
   <cc:Work rdf:about="">
    <dc:format>image/svg+xml</dc:format>
    <dc:type rdf:resource="http://purl.org/dc/dcmitype/StillImage"/>
    <dc:title/>
   </cc:Work>
  </rdf:RDF>
 </metadata>
 <path id="path2" d="m21.429 0h-18.857c-1.4202 0-2.5714 1.1512-2.5714 2.5714v18.857c0 1.4202 1.1512 2.5714 2.5714 2.5714h18.857c1.4202 0 2.5714-1.1512 2.5714-2.5714v-18.857c0-1.4202-1.1512-2.5714-2.5714-2.5714zm-15.429 20.571c-1.4202 0-2.5714-1.1512-2.5714-2.5714s1.1512-2.5714 2.5714-2.5714 2.5714 1.1512 2.5714 2.5714-1.1512 2.5714-2.5714 2.5714zm8.4391 0h-1.8394c-0.32202 0-0.59202-0.24836-0.61296-0.56968-0.27932-4.2884-3.7094-7.71-7.9886-7.9886-0.32127-0.0209-0.56962-0.29095-0.56962-0.61291v-1.8394c0-0.35009 0.29293-0.63091 0.64254-0.61205 5.9223 0.32003 10.661 5.0644 10.98 10.98 0.01886 0.34961-0.26196 0.64253-0.61205 0.64253zm5.5195 0h-1.8393c-0.33005 0-0.59866-0.26154-0.61216-0.59132-0.29989-7.3146-6.1714-13.187-13.487-13.487-0.32984-0.0136-0.59138-0.28216-0.59138-0.61221v-1.8393c0-0.34575 0.28596-0.62486 0.63145-0.61243 8.9909 0.32277 16.19 7.5638 16.511 16.511 0.01243 0.34549-0.26668 0.63145-0.61243 0.63145z" fill="#f57900" stroke-width=".053571"/>
</svg>
